<?xml version="1.0" encoding="UTF-8"?>
<svg width="461px" height="77px" viewBox="0 0 461 77" version="1.1" xmlns="http://www.w3.org/2000/svg" xmlns:xlink="http://www.w3.org/1999/xlink">
    <!-- Generator: Sketch 46.2 (44496) - http://www.bohemiancoding.com/sketch -->
    <title>HRG_Logo_White_Lot_No_3</title>
    <desc>Created with Sketch.</desc>
    <defs>
        <polygon id="path-1" points="415.480071 76.94 0.679411955 76.94 0.679411955 0.067 415.480071 0.067"></polygon>
    </defs>
    <g id="Page-1" stroke="none" stroke-width="1" fill="none" fill-rule="evenodd">
        <g id="HRG_Logo_White_Lot_No_3">
            <g id="Group-3" transform="translate(20.000000, 0.000000)">
                <mask id="mask-2" fill="white">
                    <use xlink:href="#path-1"></use>
                </mask>
                <g id="Clip-2"></g>
                <path d="M5.439,76.999 L412.187,76.999 C412.187,76.999 414.688,77.067 415.479,73.692 L415.479,3.86 C415.479,3.852 415.646,0.441 411.81,0.067 L4.865,0.067 C2.115,0.392 0.801,2.806 0.717,3.65 C0.644,4.382 0.697,58.854 0.713,73.44 C0.713,73.44 1.23,77.056 5.439,76.999" id="Fill-1" fill="#FFFFFE" mask="url(#mask-2)"></path>
            </g>
            <path d="M0,39.491 C0,24.579 12.088,12.491 27,12.491 C41.911,12.491 54,24.579 54,39.491 C54,54.401 41.911,66.491 27,66.491 C12.088,66.491 0,54.401 0,39.491" id="Fill-4" fill="#FFFFFE"></path>
            <path d="M406.796,39.491 C406.796,24.579 418.886,12.491 433.796,12.491 C448.708,12.491 460.796,24.579 460.796,39.491 C460.796,54.401 448.708,66.491 433.796,66.491 C418.886,66.491 406.796,54.401 406.796,39.491" id="Fill-5" fill="#FFFFFE"></path>
            <path d="M79.785,38.67 C79.785,38.67 79.749,37.191 81.021,37.187 C81.021,37.187 86.936,37.108 86.935,37.108 C87.691,37.592 87.48,38.847 87.48,39.698 L87.48,54.895 C87.48,55.565 87.419,56.052 87.419,56.476 L87.419,57.448 L56.415,57.448 C53.133,57.448 53.473,56.497 53.27,55.483 C53.104,54.649 53.145,53.985 53.145,53.315 C53.145,53.255 53.072,52.403 53.072,51.796 C53.072,50.763 54.349,50.276 55.625,50.276 C56.111,50.276 57.267,50.397 57.691,50.397 C58.239,50.032 58.482,48.452 58.482,45.655 C58.482,44.622 58.36,42.921 57.996,37.631 L58.061,32.691 L57.996,30.397 C57.936,29.85 57.979,29.178 57.979,28.691 C57.979,27.9 58.057,27.114 58.36,25.959 C58.36,25.837 58.178,25.777 57.813,25.777 L56.415,25.777 C55.746,25.837 55.26,25.837 54.956,25.837 C53.983,25.837 53.038,24.194 53.186,23.233 C53.351,22.162 53.254,18.846 55.139,18.846 C57.874,18.846 59.811,18.608 61.34,18.604 L71.248,18.604 L71.431,19.941 C71.431,22.312 71.188,24.257 70.762,25.837 C68.513,25.594 68.019,25.544 68.019,25.483 L66.854,25.441 C66.549,25.441 66.104,25.566 66.144,26.358 C66.173,26.901 66.324,28.452 66.324,31.187 C66.324,33.254 66.324,35.929 66.142,39.212 L65.838,45.595 L65.686,49.774 C65.686,51.173 70.397,50.702 73.376,50.702 C74.045,50.702 74.652,50.702 75.321,50.64 L79.604,50.649 C79.785,49.13 79.81,47.429 79.81,46.274 C79.81,45.12 79.891,44.032 79.77,42.815 L79.785,38.67" id="Fill-6" fill="#1A1919"></path>
            <path d="M129.086,37.388 C129.063,34.941 128.304,33.399 127.104,30.566 C126.063,28.108 121.852,25.291 117.778,25.291 C112.246,25.291 107.729,29.483 106.729,33.233 L106.52,35.441 L106.729,39.44 C106.972,40.839 106.958,42.194 108.234,44.804 C109.688,47.774 114.07,50.337 118.265,50.337 C122.824,50.337 126.168,47.784 128.355,42.616 C128.538,42.19 128.66,41.704 128.66,41.157 L129.086,37.388 Z M136.137,43.103 C133.341,51.796 125.863,56.901 116.806,56.901 C110.483,56.901 104.83,53.134 100.879,46.386 C100.088,45.353 98.477,40.565 98.227,38.066 C98.154,37.339 98.27,33.608 99.42,30.397 L100.635,28.269 C104.283,22.616 110.909,18.725 117.596,18.725 C128.6,18.725 136.484,26.775 136.895,37.941 C136.896,38.002 137.109,40.124 136.137,43.103 L136.137,43.103 Z" id="Fill-7" fill="#1A1919"></path>
            <path d="M183.948,31.066 L183.948,31.673 C183.948,33.984 183.036,34.653 178.902,34.653 L177.504,34.653 C176.592,34.653 176.167,33.68 176.167,31.673 C176.167,30.64 176.288,28.208 176.288,27.479 L176.288,27.053 C176.288,25.655 176.228,25.108 172.459,25.108 L171.364,25.108 C170.452,25.108 169.662,25.473 168.993,26.203 L168.993,49.851 C169.602,50.216 169.966,50.397 170.148,50.397 C170.452,50.216 170.878,50.093 171.486,50.093 C174.343,50.093 174.951,50.337 174.951,55.2 C174.951,56.599 172.397,57.267 167.291,57.267 C162.61,57.267 159.023,57.206 156.531,57.085 C155.984,56.78 155.741,55.565 155.741,53.376 C155.741,51.065 156.531,49.911 158.111,49.911 C158.537,49.911 159.084,49.972 159.814,50.032 L161.029,50.093 C161.212,48.331 161.455,46.386 161.82,44.136 L161.82,26.203 C160.848,25.473 159.389,25.108 157.504,25.108 C156.349,25.108 155.32,25.144 154.895,25.327 L154.582,26.952 C154.738,27.889 154.707,28.938 154.707,30.762 C154.707,33.132 154.039,34.348 152.641,34.348 C147.23,34.348 146.318,34.166 146.318,31.43 L146.318,21.46 C147.048,19.698 147.777,18.786 148.446,18.786 C148.933,18.786 150.191,18.764 150.738,18.764 C151.407,18.764 152.957,18.733 153.738,18.733 C157.75,18.733 161.273,18.968 166.562,18.968 L176.471,18.968 C177.504,18.968 180.604,18.846 181.151,18.846 C183.705,18.846 184.495,19.455 184.495,23.223 C183.948,25.351 183.948,29.85 183.948,31.066" id="Fill-8" fill="#1A1919"></path>
            <path d="M266.681,25.594 C266.194,25.594 264.978,25.23 264.491,25.23 C263.823,25.23 263.458,25.594 263.276,26.324 L263.397,26.81 C263.702,27.6 263.823,28.148 263.823,28.573 L263.823,34.227 C263.884,35.26 263.944,37.388 263.944,38.057 L263.944,56.538 C263.567,57.386 259.567,57.267 257.259,57.267 C255.981,57.267 254.462,55.747 252.819,52.769 C245.829,40.124 245.89,42.251 239.021,30.64 L237.806,30.64 L237.683,32.221 L237.683,46.872 C237.743,49.607 238.108,50.702 238.899,50.702 C240.054,50.702 240.905,50.337 241.271,50.337 C242.546,50.337 243.216,51.065 243.216,52.464 L243.216,53.802 C243.216,56.599 242.729,57.267 241.392,57.267 L228.199,57.267 C226.68,57.267 226.011,55.808 225.524,52.282 C225.524,51.005 226.193,50.337 227.53,50.337 C228.199,50.337 228.686,50.397 228.989,50.579 C230.266,50.579 230.874,48.817 231.118,45.229 L231.118,26.324 C230.837,25.629 229.354,25.23 228.503,25.23 L227.227,25.23 C226.68,25.291 226.252,25.266 226.011,25.291 C225.477,25.345 225.768,23.102 225.16,21.704 C225.16,20.305 226.133,18.665 227.53,18.665 L238.474,18.665 C240.661,18.665 241.878,20.245 242.851,24.014 L243.579,25.351 C244.978,27.662 247.106,30.701 250.024,34.531 C250.813,35.564 254.765,42.069 256.528,43.954 C256.71,43.224 256.772,42.616 256.772,42.19 L256.772,40.913 C256.71,40.366 256.71,39.94 256.71,39.698 L256.71,39.091 C256.71,39.151 256.71,39.212 256.71,39.212 C256.71,39.212 256.71,38.604 256.772,37.388 C256.772,36.902 256.833,36.415 256.833,36.05 C256.833,34.531 256.46,33.629 256.339,32.979 C256.364,33.114 256.224,32.039 256.407,29.545 L256.649,25.837 C256.407,25.413 255.981,25.168 255.435,25.168 C254.888,25.168 253.489,25.594 253.003,25.594 C252.698,25.594 251.872,25.629 251.3,24.987 C250.683,24.292 250.983,23.184 250.983,22.151 C250.983,20.936 250.491,19.823 251.058,19.637 L251.587,19.091 C252.136,18.726 252.698,18.604 252.882,18.604 C255.313,18.604 263.458,18.908 265.89,18.908 L267.774,18.908 C268.321,18.968 268.626,19.272 268.626,19.941 L268.626,20.974 C268.505,22.555 268.565,24.075 268.079,24.804 C267.774,25.351 267.288,25.594 266.681,25.594" id="Fill-9" fill="#1A1919"></path>
            <path d="M306.253,30.397 C305.425,27.961 301.146,25.291 297.073,25.291 C291.542,25.291 286.417,29.936 286.417,34.129 L286.13,35.852 L286.009,38.482 C286.253,39.88 286.739,42.009 287.528,44.804 C290.022,48.513 293.364,50.337 297.56,50.337 C302.118,50.337 305.462,47.784 307.651,42.616 C307.833,42.19 307.954,41.704 307.954,41.157 C307.954,40.366 308.405,39.874 308.222,39.509 C308.708,39.327 308.38,38.543 308.38,37.388 C308.38,35.381 307.241,33.31 306.253,30.397 Z M315.433,43.103 C312.636,51.796 305.159,56.901 296.101,56.901 C289.778,56.901 284.124,53.134 280.173,46.386 C279.384,45.353 278.267,44.308 276.952,38.057 C276.231,34.632 278.714,31.37 278.714,30.397 L279.931,28.269 C283.577,22.616 290.204,18.725 296.892,18.725 C307.894,18.725 316.892,27.479 316.892,38.482 C316.892,38.543 316.405,40.124 315.433,43.103 L315.433,43.103 Z" id="Fill-10" fill="#1A1919"></path>
            <path d="M331.175,55.808 L330.931,56.901 C330.87,57.267 330.323,57.448 329.29,57.448 C328.925,57.448 328.323,57.382 327.54,57.337 C326.812,57.296 325.581,57.448 324.304,57.448 C323.757,57.448 323.12,57.364 322.937,56.817 L322.79,55.608 C322.687,54.587 322.812,54.239 322.812,53.692 C322.69,53.145 322.749,52.608 322.749,52.046 L322.907,50.823 C322.907,50.093 323.394,49.729 324.427,49.729 C325.095,49.729 326.519,49.755 327.187,49.755 C327.247,49.755 327.909,49.71 328.458,49.649 C329.612,49.407 330.019,49.425 330.079,49.425 C330.688,49.425 330.991,49.729 330.991,50.397 C330.991,50.823 330.958,51.868 330.958,52.171 C330.958,52.657 330.978,53.13 331.165,54.608 L331.175,55.808" id="Fill-11" fill="#1A1919"></path>
            <path d="M386.978,57.571 C377.979,57.571 371.657,52.161 371.657,44.136 C371.657,43.468 372.812,43.103 375.183,43.103 C376.216,43.103 377.067,43.163 377.675,43.224 L378.345,43.345 C378.526,43.528 378.71,44.317 379.013,45.776 C379.62,48.634 381.142,50.944 387.827,50.944 C389.591,50.944 390.868,50.884 391.778,50.763 L393.603,50.216 C395.792,48.999 396.581,47.54 396.581,45.839 C396.581,41.825 393.36,39.819 386.915,39.819 C386.247,39.819 384.606,39.94 383.937,39.94 C383.269,39.577 382.903,37.874 382.903,34.774 C382.903,34.47 384.849,33.741 388.679,32.585 C392.509,31.43 394.454,30.276 394.454,29.242 C394.454,26.141 391.962,24.257 387.888,24.257 C384.546,24.257 381.323,26.081 380.776,28.512 L380.776,30.883 C380.472,31.43 379.378,31.673 377.433,31.673 C374.394,31.673 372.874,31.249 372.874,30.397 L373.542,27.236 C375.729,21.157 380.411,18.118 387.585,18.118 C395.366,18.118 401.749,22.069 401.749,27.905 C401.749,30.458 401.019,32.525 399.499,34.044 C397.798,35.26 396.765,35.99 396.399,36.293 C400.046,38.725 403.45,40.306 403.45,44.683 C403.45,52.769 397.251,57.571 386.978,57.571" id="Fill-12" fill="#1A1919"></path>
            <path d="M18.498,38.358 C18.498,36.37 20.109,34.758 22.098,34.758 C24.086,34.758 25.698,36.37 25.698,38.358 C25.698,40.347 24.086,41.958 22.098,41.958 C20.109,41.958 18.498,40.347 18.498,38.358" id="Fill-13" fill="#1A1919"></path>
            <path d="M430.696,38.358 C430.696,36.37 432.308,34.758 434.296,34.758 C436.284,34.758 437.896,36.37 437.896,38.358 C437.896,40.347 436.284,41.958 434.296,41.958 C432.308,41.958 430.696,40.347 430.696,38.358" id="Fill-14" fill="#1A1919"></path>
        </g>
    </g>
</svg>